{
  "development": {
    "username": "root",
    "password": "hakiem09",
    "database": "google_restaurant",
    "host": "localhost",
    "dialect": "mysql",
    "logging": false,
    "define" : {
      "timestamps": false
    }
  },
  "test": {
    "username": "root",
    "password": "hakiem09",
    "database": "google-restaurant",
    "host": "127.0.0.1",
    "dialect": "mysql",
    "logging": false,
    "define" : {
      "timestamps": false
    }
  },
  "production": {
    "username": "root",
    "password": "hakiem09",
    "database": "google-restaurant",
    "host": "127.0.0.1",
    "dialect": "mysql",
    "logging": false,
    "define" : {
      "timestamps": false
    }
  }
}